^D:\编程参考书\C++\DIRECTX终极游戏开发指南\[随书光盘].[DIRECTX终极游戏开发指南].(ULTIMATE.GAME.PROGRAMMING.WITH.DIRECTX)\STRANDED\CHAPTER16\STRANDED\GAME.CPP|D:\编程参考书\C++\DIRECTX终极游戏开发指南\[随书光盘].[DIRECTX终极游戏开发指南].(ULTIMATE.GAME.PROGRAMMING.WITH.DIRECTX)\STRANDED\CHAPTER16\STRANDED\GAMEENGINE.CPP|D:\编程参考书\C++\DIRECTX终极游戏开发指南\[随书光盘].[DIRECTX终极游戏开发指南].(ULTIMATE.GAME.PROGRAMMING.WITH.DIRECTX)\STRANDED\CHAPTER16\STRANDED\LEVEL.CPP|D:\编程参考书\C++\DIRECTX终极游戏开发指南\[随书光盘].[DIRECTX终极游戏开发指南].(ULTIMATE.GAME.PROGRAMMING.WITH.DIRECTX)\STRANDED\CHAPTER16\STRANDED\MAIN.CPP|D:\编程参考书\C++\DIRECTX终极游戏开发指南\[随书光盘].[DIRECTX终极游戏开发指南].(ULTIMATE.GAME.PROGRAMMING.WITH.DIRECTX)\STRANDED\CHAPTER16\STRANDED\MENU.CPP
D:\编程参考书\C++\DIRECTX终极游戏开发指南\[随书光盘].[DIRECTX终极游戏开发指南].(ULTIMATE.GAME.PROGRAMMING.WITH.DIRECTX)\STRANDED\CHAPTER16\STRANDED\DEBUG\MENU.OBJ
D:\编程参考书\C++\DIRECTX终极游戏开发指南\[随书光盘].[DIRECTX终极游戏开发指南].(ULTIMATE.GAME.PROGRAMMING.WITH.DIRECTX)\STRANDED\CHAPTER16\STRANDED\DEBUG\MAIN.OBJ
D:\编程参考书\C++\DIRECTX终极游戏开发指南\[随书光盘].[DIRECTX终极游戏开发指南].(ULTIMATE.GAME.PROGRAMMING.WITH.DIRECTX)\STRANDED\CHAPTER16\STRANDED\DEBUG\LEVEL.OBJ
D:\编程参考书\C++\DIRECTX终极游戏开发指南\[随书光盘].[DIRECTX终极游戏开发指南].(ULTIMATE.GAME.PROGRAMMING.WITH.DIRECTX)\STRANDED\CHAPTER16\STRANDED\DEBUG\GAMEENGINE.OBJ
D:\编程参考书\C++\DIRECTX终极游戏开发指南\[随书光盘].[DIRECTX终极游戏开发指南].(ULTIMATE.GAME.PROGRAMMING.WITH.DIRECTX)\STRANDED\CHAPTER16\STRANDED\DEBUG\GAME.OBJ
^D:\编程参考书\C++\DIRECTX终极游戏开发指南\[随书光盘].[DIRECTX终极游戏开发指南].(ULTIMATE.GAME.PROGRAMMING.WITH.DIRECTX)\STRANDED\CHAPTER16\STRANDED\GAME.CPP
D:\编程参考书\C++\DIRECTX终极游戏开发指南\[随书光盘].[DIRECTX终极游戏开发指南].(ULTIMATE.GAME.PROGRAMMING.WITH.DIRECTX)\STRANDED\CHAPTER16\STRANDED\DEBUG\VC100.PDB
^D:\编程参考书\C++\DIRECTX终极游戏开发指南\[随书光盘].[DIRECTX终极游戏开发指南].(ULTIMATE.GAME.PROGRAMMING.WITH.DIRECTX)\STRANDED\CHAPTER16\STRANDED\GAMEENGINE.CPP
D:\编程参考书\C++\DIRECTX终极游戏开发指南\[随书光盘].[DIRECTX终极游戏开发指南].(ULTIMATE.GAME.PROGRAMMING.WITH.DIRECTX)\STRANDED\CHAPTER16\STRANDED\DEBUG\VC100.PDB
^D:\编程参考书\C++\DIRECTX终极游戏开发指南\[随书光盘].[DIRECTX终极游戏开发指南].(ULTIMATE.GAME.PROGRAMMING.WITH.DIRECTX)\STRANDED\CHAPTER16\STRANDED\LEVEL.CPP
D:\编程参考书\C++\DIRECTX终极游戏开发指南\[随书光盘].[DIRECTX终极游戏开发指南].(ULTIMATE.GAME.PROGRAMMING.WITH.DIRECTX)\STRANDED\CHAPTER16\STRANDED\DEBUG\VC100.PDB
^D:\编程参考书\C++\DIRECTX终极游戏开发指南\[随书光盘].[DIRECTX终极游戏开发指南].(ULTIMATE.GAME.PROGRAMMING.WITH.DIRECTX)\STRANDED\CHAPTER16\STRANDED\MAIN.CPP
D:\编程参考书\C++\DIRECTX终极游戏开发指南\[随书光盘].[DIRECTX终极游戏开发指南].(ULTIMATE.GAME.PROGRAMMING.WITH.DIRECTX)\STRANDED\CHAPTER16\STRANDED\DEBUG\VC100.PDB
^D:\编程参考书\C++\DIRECTX终极游戏开发指南\[随书光盘].[DIRECTX终极游戏开发指南].(ULTIMATE.GAME.PROGRAMMING.WITH.DIRECTX)\STRANDED\CHAPTER16\STRANDED\MENU.CPP
D:\编程参考书\C++\DIRECTX终极游戏开发指南\[随书光盘].[DIRECTX终极游戏开发指南].(ULTIMATE.GAME.PROGRAMMING.WITH.DIRECTX)\STRANDED\CHAPTER16\STRANDED\DEBUG\VC100.PDB
